0 INT 0 3
1 CAL 0 3
2 RET 0 0
3 INT 0 7
4 LIT 0 2
5 LIT 0 15
6 OPR 0 4
7 STO 0 3
8 LIT 0 2
9 LIT 0 15
10 OPR 0 4
11 STO 0 4
12 LIT 0 4
13 STO 0 5
14 LIT 0 1
15 LIT 0 0
16 OPR 0 4
17 STO 0 6
18 RET 0 0