0 INT 0 3
1 CAL 0 3
2 RET 0 0
3 INT 0 9
4 LIT 0 18
5 LIT 0 1
6 LIT 0 5
7 LIT 0 1
8 CAL 1 25
9 INT 0 -2
10 STO 0 4
11 STO 0 3
12 LIT 0 11
13 LIT 0 5
14 STO 0 6
15 STO 0 5
16 LOD 0 3
17 LOD 0 4
18 LOD 0 5
19 LOD 0 6
20 CAL 1 40
21 INT 0 -2
22 STO 0 8
23 STO 0 7
24 RET 0 0
25 INT 0 3
26 LOD 0 -4
27 LOD 0 -3
28 LOD 0 -2
29 LOD 0 -1
30 LOD 0 3
31 LOD 0 6
32 OPR 0 4
33 LOD 0 4
34 LOD 0 5
35 OPR 0 4
36 CAL 1 56
37 STO 0 -3
38 STO 0 -4
39 RET 0 0
40 INT 0 3
41 LOD 0 -4
42 LOD 0 -3
43 LOD 0 -2
44 LOD 0 -1
45 CAL 1 72
46 LOD 0 3
47 LOD 0 5
48 OPR 0 3
49 STO 0 3
50 LOD 0 3
51 LOD 0 4
52 CAL 1 56
53 STO 0 -3
54 STO 0 -4
55 RET 0 0
56 INT 0 3
57 LOD 0 -2
58 LOD 0 -1
59 LOD 0 3
60 LOD 0 4
61 CAL 1 99
62 INT 0 -1
63 LOD 0 3
64 LOD 0 5
65 OPR 0 5
66 STO 0 -2
67 LOD 0 4
68 LOD 0 5
69 OPR 0 5
70 STO 0 -1
71 RET 0 0
72 INT 0 4
73 LOD 0 -4
74 LOD 0 -3
75 LOD 0 -2
76 LOD 0 -1
77 LOD 0 5
78 LOD 0 7
79 CAL 1 120
80 INT 0 -1
81 STO 0 3
82 LOD 0 3
83 LOD 0 5
84 OPR 0 5
85 LOD 0 4
86 OPR 0 4
87 STO 0 -4
88 LOD 0 3
89 LOD 0 7
90 OPR 0 5
91 LOD 0 6
92 OPR 0 4
93 STO 0 -2
94 LOD 0 3
95 STO 0 -3
96 LOD 0 3
97 STO 0 -1
98 RET 0 0
99 INT 0 3
100 LOD 0 -2
101 LOD 0 -1
102 LOD 0 3
103 LOD 0 4
104 OPR 0 6
105 STO 0 3
106 LOD 0 3
107 LIT 0 0
108 OPR 0 8
109 JMC 0 114
110 LOD 0 4
111 STO 0 -2
112 RET 0 0
113 JMP 0 114
114 LOD 0 4
115 LOD 0 3
116 CAL 1 99
117 INT 0 -1
118 STO 0 -2
119 RET 0 0
120 INT 0 3
121 LOD 0 -2
122 LOD 0 -1
123 LOD 0 3
124 LOD 0 4
125 CAL 1 99
126 INT 0 -1
127 OPR 0 5
128 OPR 0 4
129 STO 0 -2
130 RET 0 0
